! Start of TT24 (exit of second splitter) as obtained from particle tracking simulation in SPS with COSE
alfx0 =   2.366476e-01;
alfy0  = -4.285318e-01;
betx0  =  1.856207e+01;
bety0  =  5.410823e+03;
dpx0   =  5.749611e-02;
dpy0   = -1.220249e-03;
dx0    = -2.525527e-01;
dy0    = -2.458923e-01;
epsx  =   4.691193e-08;
epsy  =   4.371930e-09;


! Old parameters as obtained from AFS repo
/*******
BETX0 = 17.08204323;
ALFX0 = 0.8280252328;
DX0 = -0.6251331317;
DPX0 = 0.03107025437;
BETY0 = 23601.70867;
ALFY0 = -1.765036154;
DY0 = 0.3991115509;
DPY0 = -0.001105971255;
********/