/*********************************************************************************
Initial conditions from MADX stitched model of PS extraction to TT10 LHC Q20 beam
*********************************************************************************/

betx0              =   24.39000 ;
bety0              =    9.02373 ;
alfx0              =   -2.22051 ;
alfy0              =    1.00354 ;
dx0                =    3.02106 ;
dy0                =    0.00000 ;
dpx0               =    0.24902 ;
dpy0               =    0.00000 ;
